mS	mZd	mean	erMean	sigma	erSigma	const	erConst
40	15	14.9	0.013	0.421	0.0246	640	57.6
50	20	19.9	0.0126	0.481	0.0129	856	35.5
60	25	24.9	0.0111	0.564	0.00878	1.33e+03	34.3
70	30	29.9	0.00889	0.633	0.00658	2.39e+03	42.1
80	35	34.8	0.00766	0.701	0.00568	3.57e+03	48.6
90	40	39.8	0.00717	0.754	0.00502	4.42e+03	51.1
100	45	44.8	0.00689	0.804	0.00501	5.04e+03	53.4
56	18	17.9	0.00962	0.492	0.00942	1.49e+03	44.9
60	22	21.9	0.00935	0.511	0.00839	1.64e+03	43.1
64	16	15.9	0.00646	0.469	0.00748	2.91e+03	71.4
66	29	28.9	0.00948	0.6	0.00712	1.99e+03	39.9
68	32	31.9	0.00991	0.639	0.00739	1.94e+03	37.6
73	20	19.9	0.00587	0.541	0.00494	4.46e+03	66
76	34	33.9	0.00789	0.672	0.0058	3.22e+03	47.1
80	27	26.9	0.00629	0.613	0.00455	4.67e+03	59.3
82	36	35.9	0.00743	0.704	0.00554	3.82e+03	50.3
84	19	18.9	0.00462	0.533	0.00376	7.24e+03	84
85	33	32.9	0.00651	0.674	0.00475	4.76e+03	57
86	24	23.9	0.00515	0.591	0.00386	6.53e+03	72.3
92	37	36.8	0.00652	0.722	0.00462	5.13e+03	56.7
93	28	27.9	0.00527	0.638	0.00388	6.81e+03	70.1
95	17	16.9	0.00365	0.486	0.00356	1.03e+04	118
96	44	43.8	0.00708	0.783	0.00527	4.66e+03	52.5
98	42	41.8	0.00663	0.766	0.00475	5.24e+03	55.9
102	23	22.9	0.00417	0.568	0.00321	9.54e+03	89.9
104	48	47.8	0.00724	0.819	0.00545	4.87e+03	53
105	35	34.8	0.0054	0.707	0.00344	7.21e+03	65.4
105	38	37.8	0.00564	0.725	0.00341	6.71e+03	61.4
108	46	45.8	0.00662	0.826	0.0045	5.6e+03	54.3
109	26	25.9	0.00424	0.599	0.00321	9.77e+03	87.7
110	30	29.9	0.00469	0.651	0.00336	8.84e+03	78.6
