56 
60 
64 
66 
68 
73 
76 
80 
82 
84 
85 
86 
92 
93 
95 
96 
98 
102
104
105
105
108
109
110
111
112
150
200
225
300
320
350
375
380
440
450
500
500
510
520
550
560
600
625
650
660
680
690
700
730
760
770